<?xml version="1.0" encoding="UTF-8" standalone="no"?>
<!-- Created with Inkscape (http://www.inkscape.org/) -->

<svg
   xmlns:dc="http://purl.org/dc/elements/1.1/"
   xmlns:cc="http://creativecommons.org/ns#"
   xmlns:rdf="http://www.w3.org/1999/02/22-rdf-syntax-ns#"
   xmlns:svg="http://www.w3.org/2000/svg"
   xmlns="http://www.w3.org/2000/svg"
   xmlns:sodipodi="http://sodipodi.sourceforge.net/DTD/sodipodi-0.dtd"
   xmlns:inkscape="http://www.inkscape.org/namespaces/inkscape"
   width="227"
   height="227"
   id="svg2"
   version="1.1"
   inkscape:version="0.48.3.1 r9886"
   sodipodi:docname="ecphoneme-logo-toolbar.svg"
   inkscape:export-filename="/home/dreamer/Projects/ecphoneme/ecphoneme-git/data/ecphoneme-toolbar-icon-64.png"
   inkscape:export-xdpi="25.374449"
   inkscape:export-ydpi="25.374449">
  <defs
     id="defs4" />
  <sodipodi:namedview
     id="base"
     pagecolor="#ffffff"
     bordercolor="#666666"
     borderopacity="1.0"
     inkscape:pageopacity="0.0"
     inkscape:pageshadow="2"
     inkscape:zoom="0.70710678"
     inkscape:cx="139.92481"
     inkscape:cy="-0.24769654"
     inkscape:document-units="px"
     inkscape:current-layer="text3779"
     showgrid="false"
     inkscape:snap-global="true"
     inkscape:window-width="1024"
     inkscape:window-height="709"
     inkscape:window-x="0"
     inkscape:window-y="27"
     inkscape:window-maximized="1"
     fit-margin-top="0"
     fit-margin-left="0"
     fit-margin-right="0"
     fit-margin-bottom="0"
     showguides="true"
     inkscape:guide-bbox="true">
    <inkscape:grid
       type="xygrid"
       id="grid3868"
       empspacing="5"
       visible="true"
       enabled="true"
       snapvisiblegridlinesonly="true"
       originx="-146.78335px"
       originy="-313.27782px" />
  </sodipodi:namedview>
  <metadata
     id="metadata7">
    <rdf:RDF>
      <cc:Work
         rdf:about="">
        <dc:format>image/svg+xml</dc:format>
        <dc:type
           rdf:resource="http://purl.org/dc/dcmitype/StillImage" />
        <dc:title></dc:title>
      </cc:Work>
    </rdf:RDF>
  </metadata>
  <g
     inkscape:label="Layer 1"
     inkscape:groupmode="layer"
     id="layer1"
     transform="translate(-146.78335,-512.08436)">
    <g
       transform="matrix(1.1610283,0,0,0.86130546,24.243661,6.0609153)"
       style="font-size:235.39437866px;font-style:oblique;font-variant:normal;font-weight:600;font-stretch:normal;line-height:125%;letter-spacing:0px;word-spacing:0px;fill:#000000;fill-opacity:1;stroke:none;font-family:LMRomanDemi10;-inkscape-font-specification:LMRomanDemi10 Semi-Bold Oblique"
       id="text3779">
      <path
         style="font-size:235.39437866px;font-style:oblique;font-variant:normal;font-weight:600;font-stretch:normal;line-height:125%;letter-spacing:0px;word-spacing:0px;fill:#000000;fill-opacity:1;stroke:none;font-family:LMRomanDemi10;-inkscape-font-specification:LMRomanDemi10 Semi-Bold Oblique"
         d="m 187.35851,732.00051 c -25.07761,-10.30193 -55.17532,0.46146 -68.93858,25.74511 -14.68078,26.96923 -5.67717,60.24058 20.26005,74.25587 25.93724,14.01534 59.14982,3.5818 73.83061,-23.38743 14.68084,-26.96925 5.71366,-60.22488 -20.22358,-74.24022 -1.62107,-0.87596 -3.25665,-1.68652 -4.9285,-2.37333 z"
         id="path3784-2-3"
         inkscape:connector-curvature="0" />
      <path
         d="m 289.38747,628.10336 c 5.83832,-10.19938 -0.15871,-24.42926 -13.44105,-31.64597 -13.28234,-7.2167 -29.52556,-5.07061 -35.36388,5.12874 -0.92197,1.55623 -1.43522,1.9631 -2.14812,5.00434 L 198.46124,709.6727 c -2.76119,6.72839 -2.65664,7.4709 3.83008,10.99534 5.86893,3.18878 6.99999,3.11755 10.89692,-1.62229 l 73.63532,-87.87825 2.56391,-3.06414"
         style="font-family:LMRomanDemi10;-inkscape-font-specification:LMRomanDemi10 Semi-Bold Oblique"
         id="path3784"
         inkscape:connector-curvature="0"
         sodipodi:nodetypes="cscccsccc" />
      <path
         d="m 214.87525,806.8613 c 15.13427,-28.17968 6.21015,-62.65852 -20.1154,-76.96201 -26.32553,-14.30346 -60.25704,-3.10939 -75.3913,25.07029 -15.13424,28.17968 -6.21011,62.65849 20.11542,76.96195 26.32556,14.30349 60.25704,3.10945 75.39128,-25.07023"
         style="font-size:235.39437866px;font-style:oblique;font-variant:normal;font-weight:600;font-stretch:normal;line-height:125%;letter-spacing:0px;word-spacing:0px;color:#000000;fill:#fbfbfa;fill-opacity:0.77916721;fill-rule:nonzero;stroke:#000001;stroke-width:13.96325684;stroke-miterlimit:4;stroke-opacity:1;stroke-dasharray:none;marker:none;visibility:visible;display:inline;overflow:visible;enable-background:accumulate;font-family:LMRomanDemi10;-inkscape-font-specification:LMRomanDemi10 Semi-Bold Oblique"
         id="path3784-2"
         inkscape:connector-curvature="0"
         sodipodi:nodetypes="csssc" />
      <path
         d="m 212.85138,804.84483 c 14.38493,-26.7009 5.82893,-59.43049 -19.28455,-73.05782 -25.11348,-13.62731 -57.43996,-3.08178 -71.8249,23.61912 -14.3849,26.70094 -5.82889,59.43047 19.28455,73.05778 25.1135,13.62733 57.43999,3.08183 71.8249,-23.61908"
         style="font-size:235.39437866px;font-style:oblique;font-variant:normal;font-weight:600;font-stretch:normal;line-height:125%;letter-spacing:0px;word-spacing:0px;color:#000000;fill:#fbfbfa;fill-opacity:0.77916721;fill-rule:nonzero;stroke:none;stroke-width:1;marker:none;visibility:visible;display:inline;overflow:visible;enable-background:accumulate;font-family:LMRomanDemi10;-inkscape-font-specification:LMRomanDemi10 Semi-Bold Oblique"
         id="path3784-2-8"
         inkscape:connector-curvature="0"
         sodipodi:nodetypes="csssc" />
    </g>
  </g>
</svg>
